<?xml version="1.0" encoding="UTF-8" standalone="no"?>
<svg
   width="128"
   height="128"
   viewBox="0 0 128 128"
   fill="none"
   version="1.1"
   id="svg13603"
   sodipodi:docname="notification.svg"
   inkscape:version="1.2.2 (b0a8486541, 2022-12-01)"
   xmlns:inkscape="http://www.inkscape.org/namespaces/inkscape"
   xmlns:sodipodi="http://sodipodi.sourceforge.net/DTD/sodipodi-0.dtd"
   xmlns:xlink="http://www.w3.org/1999/xlink"
   xmlns="http://www.w3.org/2000/svg"
   xmlns:svg="http://www.w3.org/2000/svg">
  <sodipodi:namedview
     id="namedview13605"
     pagecolor="#505050"
     bordercolor="#ffffff"
     borderopacity="1"
     inkscape:showpageshadow="0"
     inkscape:pageopacity="0"
     inkscape:pagecheckerboard="1"
     inkscape:deskcolor="#505050"
     showgrid="false"
     inkscape:zoom="2.0060209"
     inkscape:cx="8.4744878"
     inkscape:cy="-2.4924964"
     inkscape:window-width="2226"
     inkscape:window-height="1220"
     inkscape:window-x="0"
     inkscape:window-y="0"
     inkscape:window-maximized="0"
     inkscape:current-layer="svg13603" />
  <defs
     id="defs13601">
    <linearGradient
       id="paint0_linear_637_165"
       x1="63.8336"
       y1="99.208"
       x2="63.8336"
       y2="4.99999"
       gradientUnits="userSpaceOnUse">
      <stop
         stop-color="#8000E3"
         id="stop13581" />
      <stop
         offset="1"
         stop-color="#FF00FF"
         id="stop13583" />
    </linearGradient>
    <linearGradient
       id="paint1_linear_637_165"
       x1="63.8336"
       y1="99.208"
       x2="63.8336"
       y2="4.99999"
       gradientUnits="userSpaceOnUse"
       gradientTransform="matrix(1.0751984,0,0,1.0753053,-171.9267,-4.1025704)">
      <stop
         stop-color="#8000E3"
         id="stop13586" />
      <stop
         offset="1"
         stop-color="#FF00FF"
         id="stop13588" />
    </linearGradient>
    <linearGradient
       id="paint2_linear_637_165"
       x1="63.5038"
       y1="122"
       x2="63.5038"
       y2="107.303"
       gradientUnits="userSpaceOnUse">
      <stop
         stop-color="#FF00F5"
         id="stop13591" />
      <stop
         offset="1"
         stop-color="#FF81FF"
         id="stop13593" />
    </linearGradient>
    <linearGradient
       id="paint3_linear_637_165"
       x1="63.5038"
       y1="122"
       x2="63.5038"
       y2="107.303"
       gradientUnits="userSpaceOnUse"
       gradientTransform="matrix(1.0751984,0,0,1.0753053,-171.9267,-4.1025704)">
      <stop
         stop-color="#FF00F5"
         id="stop13596" />
      <stop
         offset="1"
         stop-color="#FF81FF"
         id="stop13598" />
    </linearGradient>
    <linearGradient
       inkscape:collect="always"
       xlink:href="#paint0_linear_637_165"
       id="linearGradient967"
       gradientUnits="userSpaceOnUse"
       gradientTransform="matrix(0.1327469,0,0,0.1416427,3.443892,3.7326968)"
       x1="63.8336"
       y1="99.208"
       x2="63.8336"
       y2="4.99999" />
    <linearGradient
       inkscape:collect="always"
       xlink:href="#paint0_linear_637_165"
       id="linearGradient969"
       gradientUnits="userSpaceOnUse"
       gradientTransform="matrix(0.1327469,0,0,0.1416427,3.443892,3.7326968)"
       x1="63.8336"
       y1="99.208"
       x2="63.8336"
       y2="4.99999" />
    <linearGradient
       inkscape:collect="always"
       xlink:href="#paint2_linear_637_165"
       id="linearGradient971"
       gradientUnits="userSpaceOnUse"
       gradientTransform="matrix(0.1327469,0,0,0.1416427,3.443892,3.7326968)"
       x1="63.5038"
       y1="122"
       x2="63.5038"
       y2="107.303" />
    <linearGradient
       inkscape:collect="always"
       xlink:href="#paint2_linear_637_165"
       id="linearGradient973"
       gradientUnits="userSpaceOnUse"
       gradientTransform="matrix(0.1327469,0,0,0.1416427,3.443892,3.7326968)"
       x1="63.5038"
       y1="122"
       x2="63.5038"
       y2="107.303" />
    <linearGradient
       inkscape:collect="always"
       xlink:href="#paint2_linear_637_165"
       id="linearGradient914"
       x1="6.1893163"
       y1="187.13684"
       x2="125.89354"
       y2="187.13684"
       gradientUnits="userSpaceOnUse"
       gradientTransform="matrix(0.1327469,0,0,0.1416427,3.126148,-20.619592)" />
    <linearGradient
       inkscape:collect="always"
       xlink:href="#paint2_linear_637_165"
       id="linearGradient28610"
       x1="3.9477606"
       y1="5.8869753"
       x2="19.838125"
       y2="5.8869753"
       gradientUnits="userSpaceOnUse" />
    <linearGradient
       inkscape:collect="always"
       xlink:href="#paint2_linear_637_165"
       id="linearGradient318"
       gradientUnits="userSpaceOnUse"
       x1="63.5038"
       y1="122"
       x2="63.5038"
       y2="107.303"
       gradientTransform="matrix(1.0751984,0,0,1.0753053,-171.9267,-4.1025704)" />
    <linearGradient
       inkscape:collect="always"
       xlink:href="#paint0_linear_637_165"
       id="linearGradient320"
       gradientUnits="userSpaceOnUse"
       x1="63.8336"
       y1="99.208"
       x2="63.8336"
       y2="4.99999"
       gradientTransform="matrix(1.0751984,0,0,1.0753053,-171.9267,-4.1025704)" />
    <linearGradient
       inkscape:collect="always"
       xlink:href="#paint0_linear_637_165"
       id="linearGradient4373"
       x1="5"
       y1="12"
       x2="19"
       y2="12"
       gradientUnits="userSpaceOnUse"
       gradientTransform="matrix(1.9999999,0,0,2,-4.4999992,-3.4999998)" />
    <linearGradient
       inkscape:collect="always"
       xlink:href="#paint0_linear_637_165"
       id="linearGradient5883"
       x1="4.5"
       y1="12"
       x2="19.5"
       y2="12"
       gradientUnits="userSpaceOnUse"
       gradientTransform="matrix(1.9999999,0,0,2,-4.4999992,-3.4999998)" />
  </defs>
  <g
     id="notification-inactive"
     transform="matrix(0.79964626,0,0,0.79968518,147.14699,14.647114)">
    <path
       d="m -110.1685,3.7579135 c 3.69674,-3.56517602 10.410382,-3.25184402 13.706099,0.677549 1.883321,1.939312 2.336607,4.640694 2.345424,7.2066955 10.985737,2.743751 20.471999,10.45014 25.136535,20.493817 1.586991,3.031608 2.022769,6.452798 3.400421,9.560753 0.662538,6.19892 -0.0088,12.440316 0.479433,18.656116 0.296647,4.776186 -0.305144,9.611725 0.270518,14.362531 4.620773,6.724101 9.677431,13.176902 14.281433,19.917985 2.720252,3.55669 -1.726768,8.29028 -5.710379,7.67199 -4.656686,-0.19463 -9.303587,0.20323 -13.95952,0.27097 -27.063494,-0.14301 -54.144424,0.23765 -81.190504,-0.32152 -3.67931,0 -7.05363,-4.46283 -4.66464,-7.66391 4.59489,-6.994968 9.88735,-13.566373 14.38618,-20.612207 0.20923,-8.739436 0.15704,-17.49586 0.01,-26.235512 -0.47962,-2.472775 0.40987,-5.402767 2.84241,-6.596894 2.96443,-1.803714 7.08835,0.719918 7.24532,3.971858 -0.12194,10.051955 -0.0872,20.129501 -0.0436,30.189948 -0.01,2.464494 -1.80494,4.378321 -3.11292,6.326131 -2.6068,3.497429 -4.89989,7.206586 -7.75959,10.517776 21.75352,0.35582 43.533386,0.0509 65.295719,0.15248 4.289936,-0.0931 8.579656,0.18635 12.860235,-0.16087 -2.789816,-3.34506 -5.196219,-6.961103 -7.794542,-10.441651 -1.490764,-2.091683 -3.408917,-4.208855 -3.278067,-6.927225 -0.252885,-9.306873 0.226544,-18.622138 0.01731,-27.937615 -0.252887,-8.053394 -4.254776,-15.903657 -10.837575,-20.832535 -8.344057,-6.537536 -20.62014,-7.697788 -30.10641,-2.828375 -2.51112,1.100898 -4.39433,3.133331 -6.81815,4.352837 -2.60704,1.236383 -5.99862,-0.465823 -6.67871,-3.158819 -0.65393,-2.023939 0.43603,-4.200357 2.09245,-5.445131 4.30725,-3.294306 9.2509,-5.834821 14.56079,-7.198309 0,-2.8962265 0.71479,-5.9618155 3.02537,-7.9688735 z"
       fill="url(#paint0_linear_637_165)"
       stroke="url(#paint1_linear_637_165)"
       stroke-width="3.20035"
       id="path13577"
       style="fill:url(#linearGradient320);stroke:url(#paint1_linear_637_165);stroke-width:3.89737;stroke-dasharray:none" />
    <path
       d="m -116.23683,111.74652 0.58417,-0.35486 c 7.00148,-0.22903 14.01146,0 21.012707,-0.11073 1.438517,0.1527 3.452669,-0.45699 4.245977,1.13553 1.151002,6.7153 -4.237175,13.54884 -11.142714,14.47254 -7.17557,1.31294 -14.63023,-4.141 -15.37136,-11.17888 -0.0174,-1.27852 -0.60167,-3.08183 0.67122,-3.96358 z"
       fill="url(#paint2_linear_637_165)"
       stroke="url(#paint3_linear_637_165)"
       stroke-width="3.20035"
       id="path13579"
       style="fill:url(#linearGradient318);stroke:url(#paint3_linear_637_165);stroke-width:3.89737;stroke-dasharray:none" />
    <path
       d="M -183.36309,-18.941168 H -24.453387 V 140.02142 H -183.36309 Z"
       fill="none"
       id="path5756-3"
       style="stroke-width:7.22438" />
  </g>
  <g
     id="notification-disabled-6"
     transform="matrix(2,0,0,1.9932728,26.315412,-113.58808)"
     inkscape:label="notification-disabled">
    <path
       d="M 1,1 H 23 V 23 H 1 Z"
       fill="none"
       id="path2863" />
    <path
       id="strikethrough"
       d="M 4,5.414062 34.585938,36 36,34.585938 5.4140624,4 Z"
       fill="#da4453"
       style="stroke-width:1.99999" />
    <path
       d="m 19.5,4.5000005 a 1.9999999,2.0000001 0 0 0 -2,2 1.9999999,2.0000001 0 0 0 0.0196,0.257812 7.9999995,8.0000002 0 0 0 -4.480469,3.0390642 l 1.433526,1.4335923 A 5.9999997,6.0000003 0 0 1 19.5,8.5000008 a 5.9999997,6.0000003 0 0 1 6,6.0000002 c 0,6 1.171875,8.000001 5.171876,12.000001 h -0.929688 l 1.999999,1.999999 h 1.757812 v -1.999999 c -3.999999,-4 -6,-6.000001 -6,-12.000001 A 7.9999995,8.0000002 0 0 0 21.480468,6.7578125 1.9999999,2.0000001 0 0 0 21.5,6.5000005 a 1.9999999,2.0000001 0 0 0 -2,-2 z M 11.394532,16.636719 c -0.450726,4.409453 -2.4122699,6.381021 -5.8945315,9.863283 v 1.999999 H 23.257812 l -2,-1.999999 H 8.3281254 C 11.287414,23.540713 12.692479,21.668284 13.226562,18.46875 Z m 4.64453,13.863283 A 3.9999998,4.0000001 0 0 0 15.5,32.500001 a 3.9999998,4.0000001 0 0 0 4,4.000001 3.9999998,4.0000001 0 0 0 4,-4.000001 3.9999998,4.0000001 0 0 0 -0.542968,-1.999999 z"
       class="ColorScheme-Text"
       fill="currentColor"
       fill-rule="evenodd"
       id="path2866"
       style="color:#232629;fill:url(#linearGradient4373);fill-opacity:1;stroke:url(#linearGradient5883);stroke-width:2;stroke-opacity:1" />
  </g>
  <g
     id="notification-empty"
     transform="matrix(2.846862,0,0,2.7247856,149.36443,-28.420016)">
    <path
       id="path28"
       d="M 1,1 H 23 V 23 H 1 Z"
       fill="none" />
    <path
       id="circle-outline"
       d="m 12,4 a 8,8 0 0 0 -8,8 8,8 0 0 0 8,8 8,8 0 0 0 8,-8 8,8 0 0 0 -8,-8 z m 0,1 a 7,7 0 0 1 7,7 7,7 0 0 1 -7,7 7,7 0 0 1 -7,-7 7,7 0 0 1 7,-7 z"
       class="ColorScheme-Text"
       fill="currentColor"
       style="color:#232629" />
  </g>
  <g
     id="notification-progress-active"
     transform="matrix(2.846862,0,0,2.7247856,149.36443,80.571408)">
    <path
       id="empty-rectangle"
       d="M 1,1 H 23 V 23 H 1 Z"
       fill="none" />
    <circle
       id="circle-blue"
       cx="12"
       cy="12"
       r="8"
       class="ColorScheme-ButtonFocus"
       fill="currentColor"
       style="color:#3daee9" />
  </g>
  <g
     id="notification-active"
     transform="matrix(3.0102397,0,0,2.8242011,26.86026,177.61495)">
    <path
       d="M 1,1 H 23 V 23 H 1 Z"
       fill="none"
       id="path5756" />
    <path
       d="m 6.2773906,2.708219 a 7.9451836,8.9949483 0 0 0 -2.32963,6.3575123 H 4.9409084 A 6.9520368,7.8705794 0 0 1 6.9795781,3.5031815 Z m 11.2311064,0 -0.702187,0.7949625 a 6.9520368,7.8705794 0 0 1 2.038666,5.5625498 h 0.99315 A 7.9451836,8.9949483 0 0 0 17.508497,2.708219 Z m -1.406314,1.5921235 -0.704124,0.7971594 a 4.96574,5.6218425 0 0 1 1.460626,3.9682294 h 0.993149 A 5.9588884,6.7462107 0 0 0 16.102183,4.3003425 Z m -8.4145992,0.00438 A 5.9588884,6.7462107 0 0 0 5.9340559,9.065715 h 0.993149 A 4.96574,5.6218425 0 0 1 8.3839511,5.0930947 Z"
       class="ColorScheme-Text"
       fill="currentColor"
       fill-rule="evenodd"
       id="path5758"
       style="color:#232629;fill:url(#linearGradient914);fill-opacity:1;stroke-width:0.7823065;stroke:url(#linearGradient28610);stroke-dasharray:none" />
    <path
       d="m 11.068727,4.7681048 c 0.456411,-0.469615 1.285296,-0.4283431 1.692191,0.089249 0.23252,0.2554541 0.288486,0.6112874 0.289575,0.9492894 1.356328,0.3614154 2.527527,1.3765263 3.103423,2.6995115 0.195934,0.3993331 0.249737,0.8499835 0.419825,1.2593749 0.0818,0.8165414 -0.0011,1.6386774 0.05919,2.4574444 0.03662,0.629132 -0.03767,1.266086 0.0334,1.891878 0.570493,0.88572 1.194803,1.735704 1.763224,2.623663 0.335849,0.468496 -0.213191,1.092023 -0.705019,1.010577 -0.574927,-0.02564 -1.148645,0.02677 -1.723479,0.0357 -3.341333,-0.01884 -6.6848162,0.0313 -10.0239968,-0.04235 -0.4542599,0 -0.8708609,-0.587859 -0.5759106,-1.009516 0.5672953,-0.921398 1.220714,-1.787005 1.7761536,-2.715106 0.025833,-1.151189 0.019382,-2.304611 0.00106,-3.455826 -0.059218,-0.325722 0.050605,-0.7116693 0.3509298,-0.8689635 0.3659965,-0.2375915 0.8751472,0.094829 0.8945282,0.5231855 -0.015067,1.324076 -0.010766,2.651521 -0.00536,3.976717 -0.00106,0.324631 -0.2228422,0.576726 -0.3843288,0.833298 -0.3218448,0.460692 -0.6049542,0.949275 -0.9580211,1.385436 2.6857493,0.04687 5.3747507,0.0067 8.0615877,0.02009 0.529647,-0.01226 1.059267,0.02454 1.587759,-0.02118 -0.344438,-0.44063 -0.641539,-0.916946 -0.962335,-1.375415 -0.184054,-0.275523 -0.420875,-0.554405 -0.404719,-0.912476 -0.03122,-1.225934 0.02797,-2.452969 0.0021,-3.680034 C 15.329319,9.3818197 14.835235,8.347757 14.022506,7.6985095 12.992323,6.8373644 11.476686,6.6845319 10.305486,7.3259466 9.9954556,7.4709605 9.7629493,7.7386793 9.4636973,7.8993163 9.1418259,8.062177 8.7230891,7.8379567 8.6391267,7.4832268 8.55839,7.2166268 8.6929555,6.929942 8.8974654,6.7659764 9.4292495,6.3320398 10.039607,5.9973947 10.695178,5.8177919 c 0,-0.3815004 0.08825,-0.7853096 0.373523,-1.0496857 z"
       fill="url(#paint0_linear_637_165)"
       stroke="url(#paint1_linear_637_165)"
       stroke-width="0.548492"
       id="path13577-9-3"
       style="fill:url(#linearGradient967);stroke:url(#linearGradient969)" />
    <path
       d="m 10.319517,18.992716 0.07212,-0.04674 c 0.864422,-0.03017 1.729891,0 2.594286,-0.01459 0.177602,0.02011 0.426277,-0.0602 0.524218,0.149575 0.142106,0.884558 -0.52313,1.784697 -1.37571,1.906369 -0.885912,0.172951 -1.806287,-0.545461 -1.897789,-1.472512 -0.0022,-0.168414 -0.07428,-0.405948 0.08287,-0.522095 z"
       fill="url(#paint2_linear_637_165)"
       stroke="url(#paint3_linear_637_165)"
       stroke-width="0.548492"
       id="path13579-1-6"
       style="fill:url(#linearGradient971);stroke:url(#linearGradient973)" />
  </g>
  <g
     id="notification-progress-inactive"
     transform="matrix(3.0895528,0,0,2.9828273,147.19054,173.96655)">
    <path
       id="path10"
       d="M 1,1 H 23 V 23 H 1 Z"
       fill="none" />
    <circle
       id="circle-transparent"
       cx="12"
       cy="12"
       r="8"
       class="ColorScheme-Text"
       fill="currentColor"
       opacity="0.4"
       style="color:#232629" />
  </g>
  <path
     id="expander-bottom"
     d="m -322.59266,126.95716 14.62967,-13.5495 14.62966,13.5495 z"
     class="ColorScheme-Text"
     fill="currentColor"
     style="color:#232629;stroke-width:7.03961;fill:#c017b2;fill-opacity:1"
     transform="translate(223.80915,-36.677702)" />
  <path
     id="expander-top"
     d="m -322.59266,86.30867 14.62967,13.5495 14.62966,-13.5495 z"
     class="ColorScheme-Text"
     fill="currentColor"
     style="color:#232629;stroke-width:7.03961;fill:#c017b2;fill-opacity:1"
     transform="translate(223.80915,-36.677702)" />
  <path
     id="expander-right"
     d="m -286.01849,93.08342 -14.62967,13.5495 14.62967,13.54949 z"
     class="ColorScheme-Text"
     fill="currentColor"
     style="color:#232629;stroke-width:7.03961;fill:#c017b2;fill-opacity:1"
     transform="translate(223.80915,-36.677702)" />
  <path
     id="expander-left"
     d="m -329.90749,93.08342 14.62967,13.5495 -14.62967,13.54949 z"
     class="ColorScheme-Text"
     fill="currentColor"
     style="color:#232629;stroke-width:7.03961;fill:#c017b2;fill-opacity:1"
     transform="translate(223.80915,-36.677702)" />
</svg>
